# Blender v2.72 (sub 0) OBJ File: ''
# www.blender.org
o tree_trunk_trunk1
v 1.291486 5.110875 -0.535943
v 1.471534 5.082116 -0.011831
v 0.726124 4.372509 0.107064
v 1.021753 5.089073 -1.035021
v 0.575217 4.393089 -0.427816
v 0.533430 5.112543 -1.289033
v -0.004616 5.086998 -1.447080
v 0.300258 4.303152 -0.728139
v -0.523052 5.124704 -1.266529
v 0.000781 4.370136 -0.735403
v -1.051591 5.071311 -1.038700
v -0.266864 4.408217 -0.654086
v -1.248453 5.129975 -0.522556
v -0.634412 4.366215 -0.379089
v -1.407729 5.106149 0.001812
v -1.206911 5.151124 0.486429
v -0.739374 4.336778 0.187734
v -0.980449 5.116788 0.980229
v -0.547774 5.089750 1.333349
v -0.533517 4.345482 0.533670
v -0.001413 5.122606 1.374707
v -0.280230 4.380836 0.671295
v 0.514761 5.128813 1.254788
v 0.182897 4.357736 0.722925
v 1.041311 5.077196 1.033307
v 1.317659 5.097795 0.541810
v 0.482066 4.434444 0.488454
v 0.658435 6.266466 -1.648120
v 1.268442 6.262358 -1.298765
v -0.021823 6.264003 -1.799009
v -0.671581 6.274367 -1.558038
v -1.220142 6.273863 -1.186049
v -1.662215 6.264909 -0.664662
v -1.897775 6.254023 0.019512
v -1.586108 6.271327 0.682446
v -1.302447 6.257609 1.331216
v -0.683270 6.260258 1.704320
v 0.022391 6.266454 1.774752
v 0.724946 6.259431 1.695917
v 1.286162 6.264202 1.255236
v 1.577784 6.274234 0.627354
v 1.773276 6.266603 -0.022425
v 1.657750 6.263566 -0.710173
v -1.036556 7.611156 -1.624300
v -0.350313 7.622707 -2.002855
v -1.711259 7.629160 -1.204579
v -1.904458 7.613730 -0.421664
v -1.925906 7.614283 0.339920
v -1.597927 7.607844 1.021211
v -1.054437 7.602286 1.514222
v -0.424268 7.614834 1.914307
v 0.341447 7.615521 1.937220
v 1.031707 7.610108 1.615970
v 1.638646 7.619256 1.149250
v 1.850088 7.607629 0.407294
v 1.992701 7.621594 -0.348940
v 1.719332 7.623083 -1.091848
v 1.139997 7.617601 -1.626503
v 0.437165 7.620310 -1.963091
v -1.724001 8.942093 -0.092109
v -1.612028 8.960188 -0.773864
v -1.661003 8.952199 0.584714
v -1.371071 8.975074 1.225468
v -0.734743 8.935794 1.538546
v -0.104193 8.978830 1.848790
v 0.607277 8.974853 1.734949
v 1.174369 8.951519 1.309019
v 1.656109 8.974822 0.797335
v 1.724525 8.942247 0.092163
v 1.658860 8.951542 -0.584057
v 1.328064 8.958749 -1.190051
v 0.788032 8.969022 -1.638635
v 0.094556 8.949529 -1.749254
v -0.622429 8.990067 -1.784604
v -1.258085 8.990111 -1.410682
v -1.013080 10.108302 0.931537
v -1.290384 10.106054 0.471651
v -0.628034 10.158319 1.322838
v -0.068248 10.142556 1.435500
v 0.466449 10.094079 1.270129
v 0.879056 10.058056 0.927761
v 1.301052 10.143618 0.613697
v 1.444919 10.144331 0.074313
v 1.252793 10.083833 -0.463139
v 1.028506 10.117388 -0.941023
v 0.549203 10.073930 -1.198818
v 0.065796 10.125906 -1.409185
v -0.493575 10.163308 -1.387241
v -0.944449 10.120667 -1.034073
v -1.215299 10.085163 -0.559597
v -1.380582 10.111155 -0.058977
v -0.510092 10.937550 0.618940
v -0.685732 10.808105 0.073881
v -0.024182 10.816113 0.692379
v 0.265096 10.909794 0.732187
v 0.569612 10.861751 0.464089
v 0.811874 10.954548 -0.077949
v -0.578774 10.874346 -0.471687
v 0.458763 10.852417 -0.564984
v -0.076471 10.901329 -0.766031
v -0.000275 4.033814 -0.000423
v 0.000038 11.270247 0.000340
v 0.171528 0.000000 -0.244967
v 0.288860 0.000000 -0.077400
v 0.000000 0.000000 0.000000
v 0.171528 0.000000 -0.244967
v 0.093389 0.623410 -0.235074
v 0.222643 0.623410 -0.120048
v 0.288860 0.000000 -0.077400
v 0.031648 1.246821 -0.216061
v 0.163125 1.246821 -0.145169
v -0.017023 1.870231 -0.194571
v 0.112028 1.870231 -0.159992
v -0.057810 2.493641 -0.174459
v 0.067856 2.493641 -0.170803
v -0.096485 3.117052 -0.156425
v 0.026637 3.117052 -0.181847
v -0.138108 3.740462 -0.138108
v -0.017023 3.740462 -0.194571
v -0.185856 4.363873 -0.114637
v -0.068686 4.363873 -0.207282
v -0.240106 4.987283 -0.079562
v -0.132790 4.987283 -0.215285
v -0.297912 5.610693 -0.026063
v -0.211460 5.610693 -0.211459
v -0.297912 5.610693 -0.026063
v 0.000000 5.610693 0.000001
v -0.211460 5.610693 -0.211459
v -0.026064 0.000000 -0.297912
v -0.026064 0.000000 -0.297912
v -0.079563 0.623410 -0.240106
v -0.114637 1.246821 -0.185855
v -0.138108 1.870231 -0.138108
v -0.156425 2.493641 -0.096484
v -0.174460 3.117052 -0.057809
v -0.194571 3.740462 -0.017022
v -0.216061 4.363873 0.031649
v -0.235074 4.987283 0.093390
v -0.244967 5.610693 0.171529
v -0.244967 5.610693 0.171529
v -0.211460 0.000000 -0.211460
v -0.211460 0.000000 -0.211460
v -0.215286 0.623410 -0.132790
v -0.207283 1.246821 -0.068686
v -0.194571 1.870231 -0.017022
v -0.181848 2.493641 0.026637
v -0.170803 3.117052 0.067856
v -0.159992 3.740462 0.112028
v -0.145169 4.363873 0.163126
v -0.120048 4.987283 0.222644
v -0.077400 5.610693 0.288861
v -0.077400 5.610693 0.288861
v -0.297912 0.000000 -0.026064
v -0.297912 0.000000 -0.026064
v -0.250275 0.623410 0.036660
v -0.202939 1.246821 0.080623
v -0.159992 1.870231 0.112028
v -0.122182 2.493641 0.137295
v -0.087226 3.117052 0.161771
v -0.050551 3.740462 0.188660
v -0.006351 4.363873 0.218275
v 0.051150 4.987283 0.247720
v 0.126384 5.610693 0.271032
v 0.126384 5.610693 0.271032
v -0.244967 -0.000000 0.171528
v -0.244967 -0.000000 0.171528
v -0.168157 0.623410 0.188957
v -0.103637 1.246821 0.192207
v -0.050551 1.870231 0.188660
v -0.005345 2.493641 0.183711
v 0.037165 3.117052 0.179992
v 0.082543 3.740462 0.177016
v 0.135439 4.363873 0.171291
v 0.198414 4.987283 0.156886
v 0.271031 5.610693 0.126385
v 0.271031 5.610693 0.126385
v -0.077400 -0.000000 0.288860
v -0.077400 -0.000000 0.288860
v -0.007357 0.623410 0.252838
v 0.044158 1.246821 0.213856
v 0.082543 1.870231 0.177015
v 0.113992 2.493641 0.144167
v 0.144166 3.117052 0.113993
v 0.177015 3.740462 0.082544
v 0.213855 4.363873 0.044158
v 0.252838 4.987283 -0.007356
v 0.288860 5.610693 -0.077399
v 0.288860 5.610693 -0.077399
v 0.126384 -0.000000 0.271031
v 0.126384 -0.000000 0.271031
v 0.156886 0.623410 0.198414
v 0.171290 1.246821 0.135439
v 0.177015 1.870231 0.082544
v 0.179991 2.493641 0.037166
v 0.183711 3.117052 -0.005345
v 0.188659 3.740462 -0.050551
v 0.192207 4.363873 -0.103636
v 0.188956 4.987283 -0.168156
v 0.171528 5.610693 -0.244966
v 0.171528 5.610693 -0.244966
v 0.271031 -0.000000 0.126384
v 0.271031 -0.000000 0.126384
v 0.247720 0.623410 0.051150
v 0.218274 1.246821 -0.006351
v 0.188659 1.870231 -0.050551
v 0.161771 2.493641 -0.087226
v 0.137294 3.117052 -0.122181
v 0.112028 3.740462 -0.159992
v 0.080622 4.363873 -0.202938
v 0.036660 4.987283 -0.250274
v -0.026064 5.610693 -0.297911
v -0.026064 5.610693 -0.297911
vt 0.893895 0.619080
vt 0.901514 0.630025
vt 0.885231 0.639912
vt 0.388281 0.353426
vt 0.351414 0.353342
vt 0.335430 0.307874
vt 0.395891 0.398875
vt 0.364064 0.398803
vt 0.400899 0.444319
vt 0.373967 0.444257
vt 0.404692 0.489759
vt 0.382159 0.489707
vt 0.408369 0.535199
vt 0.389862 0.535157
vt 0.284145 0.444168
vt 0.308097 0.444148
vt 0.310695 0.489567
vt 0.274479 0.398745
vt 0.304595 0.398731
vt 0.261963 0.353322
vt 0.298832 0.353317
vt 0.245683 0.307897
vt 0.289268 0.307904
vt 0.886546 0.413551
vt 0.871787 0.407548
vt 0.886546 0.397911
vt 0.882222 0.617884
vt 0.419292 0.353497
vt 0.376667 0.307968
vt 0.417880 0.398926
vt 0.284145 0.580459
vt 0.308097 0.580440
vt 0.317505 0.625862
vt 0.274482 0.535027
vt 0.299830 0.535016
vt 0.265390 0.489595
vt 0.292179 0.489592
vt 0.255678 0.444164
vt 0.244372 0.398731
vt 0.230959 0.353297
vt 0.194285 0.307920
vt 0.230959 0.307890
vt 0.229332 0.353299
vt 0.879640 0.426382
vt 0.871956 0.626994
vt 0.274476 0.671337
vt 0.309361 0.671321
vt 0.325942 0.716748
vt 0.263677 0.625896
vt 0.295506 0.625891
vt 0.255678 0.580455
vt 0.249143 0.535016
vt 0.242863 0.489577
vt 0.189162 0.444184
vt 0.213114 0.444164
vt 0.215712 0.489583
vt 0.179496 0.398761
vt 0.209612 0.398748
vt 0.166980 0.353338
vt 0.203849 0.353333
vt 0.150700 0.307914
vt 0.869059 0.430401
vt 0.867902 0.642150
vt 0.239602 0.671321
vt 0.289268 0.716778
vt 0.236911 0.625874
vt 0.236018 0.580429
vt 0.179499 0.535043
vt 0.204847 0.535032
vt 0.213114 0.580456
vt 0.170407 0.489612
vt 0.197196 0.489608
vt 0.160695 0.444180
vt 0.149389 0.398748
vt 0.135976 0.353313
vt 0.120598 0.307874
vt 0.859755 0.423727
vt 0.871956 0.656258
vt 0.179493 0.671353
vt 0.214378 0.671337
vt 0.230959 0.716764
vt 0.168693 0.625912
vt 0.200522 0.625907
vt 0.160695 0.580471
vt 0.189162 0.580476
vt 0.154160 0.535032
vt 0.147880 0.489593
vt 0.141035 0.444154
vt 0.058332 0.625912
vt 0.031566 0.625890
vt 0.030674 0.580445
vt 0.069132 0.671353
vt 0.034257 0.671337
vt 0.083923 0.716794
vt 0.040338 0.716788
vt 0.856080 0.409483
vt 0.882222 0.662718
vt 0.144619 0.671337
vt 0.194285 0.716794
vt 0.141928 0.625890
vt 0.141035 0.580445
vt 0.060045 0.489612
vt 0.037518 0.489593
vt 0.030674 0.444154
vt 0.069138 0.535043
vt 0.043798 0.535032
vt 0.078800 0.580476
vt 0.050334 0.580471
vt 0.090161 0.625907
vt 0.104017 0.671337
vt 0.120598 0.716764
vt 0.859755 0.394334
vt 0.893895 0.658508
vt 0.056618 0.353338
vt 0.025614 0.353313
vt 0.010236 0.307874
vt 0.069135 0.398761
vt 0.039027 0.398748
vt 0.078800 0.444184
vt 0.050334 0.444180
vt 0.086834 0.489608
vt 0.094485 0.535032
vt 0.102753 0.580456
vt 0.112160 0.625878
vt 0.356954 0.671377
vt 0.325942 0.671306
vt 0.327354 0.625877
vt 0.368567 0.716835
vt 0.327331 0.716741
vt 0.869059 0.385367
vt 0.901514 0.645596
vt 0.093487 0.353333
vt 0.040338 0.307914
vt 0.099251 0.398748
vt 0.102752 0.444164
vt 0.105350 0.489583
vt 0.363075 0.535096
vt 0.340542 0.535044
vt 0.336865 0.489604
vt 0.371267 0.580546
vt 0.344335 0.580485
vt 0.381170 0.626001
vt 0.349344 0.625928
vt 0.393820 0.671461
vt 0.409804 0.716930
vt 0.879640 0.386780
vt 0.118970 0.353299
vt 0.083923 0.307920
vt 0.337292 0.398741
vt 0.325942 0.353284
vt 0.347035 0.444195
vt 0.355372 0.489646
vt 0.398199 0.580608
vt 0.407942 0.626062
vt 0.419292 0.671519
vt 0.325942 0.307874
vt 0.324315 0.353283
vt 0.417903 0.308062
vt 0.245683 0.716771
vt 0.150700 0.716788
vt 0.656430 0.022328
vt 0.668751 0.036708
vt 0.635070 0.058816
vt 0.641165 0.010775
vt 0.623008 0.043566
vt 0.547494 0.246455
vt 0.531707 0.232174
vt 0.556088 0.215262
vt 0.821130 0.286572
vt 0.803525 0.273677
vt 0.824860 0.248859
vt 0.556886 0.108837
vt 0.555007 0.127615
vt 0.518869 0.124217
vt 0.555653 0.090287
vt 0.520572 0.114468
vt 0.543340 0.072493
vt 0.516001 0.099072
vt 0.528674 0.056946
vt 0.511896 0.050928
vt 0.499201 0.084162
vt 0.492953 0.046758
vt 0.475834 0.051201
vt 0.485955 0.081970
vt 0.573331 0.202049
vt 0.556886 0.188409
vt 0.581347 0.170941
vt 0.589393 0.213854
vt 0.596456 0.180927
vt 0.676826 0.080075
vt 0.670069 0.097237
vt 0.632948 0.089937
vt 0.675192 0.058174
vt 0.637735 0.075939
vt 0.783374 0.168178
vt 0.765872 0.147615
vt 0.785775 0.097237
vt 0.499570 0.273375
vt 0.515406 0.215262
vt 0.515406 0.295166
vt 0.942689 0.179687
vt 0.926176 0.163363
vt 0.942689 0.097237
vt 0.958453 0.178993
vt 0.942689 0.161472
vt 0.958453 0.097237
vt 0.943277 0.438774
vt 0.927396 0.418551
vt 0.943277 0.353716
vt 0.834673 0.095973
vt 0.816292 0.074588
vt 0.834673 0.010775
vt 0.532592 0.017168
vt 0.556886 0.023639
vt 0.508496 0.010775
vt 0.946502 0.235982
vt 0.926176 0.222133
vt 0.946502 0.179687
vt 0.644450 0.248669
vt 0.626643 0.227601
vt 0.646055 0.181529
vt 0.515406 0.279240
vt 0.531707 0.301107
vt 0.518179 0.360567
vt 0.796534 0.094849
vt 0.777632 0.076989
vt 0.796534 0.010775
vt 0.717298 0.092462
vt 0.696845 0.074908
vt 0.717298 0.010775
vt 0.907649 0.092768
vt 0.890003 0.073098
vt 0.907649 0.010775
vt 0.515406 0.447316
vt 0.497048 0.429681
vt 0.515406 0.368771
vt 0.550330 0.480978
vt 0.531707 0.468055
vt 0.550330 0.413456
vt 0.785523 0.351545
vt 0.765872 0.332999
vt 0.785523 0.248468
vt 0.780844 0.458578
vt 0.765872 0.434631
vt 0.780844 0.351545
vt 0.499570 0.320400
vt 0.475834 0.299837
vt 0.499570 0.215262
vt 0.577056 0.373592
vt 0.556886 0.352522
vt 0.577056 0.273177
vt 0.496519 0.410556
vt 0.475834 0.394358
vt 0.496519 0.320400
vt 0.576188 0.447263
vt 0.556886 0.435017
vt 0.576188 0.373592
vt 0.950458 0.330654
vt 0.934182 0.311551
vt 0.950458 0.248859
vt 0.663179 0.275499
vt 0.646055 0.251025
vt 0.663179 0.181529
vt 0.895877 0.200324
vt 0.878264 0.181394
vt 0.895877 0.097237
vt 0.912264 0.203337
vt 0.895877 0.180760
vt 0.912264 0.097237
vt 0.739821 0.337480
vt 0.717776 0.317096
vt 0.739821 0.234217
vt 0.900088 0.353677
vt 0.883074 0.329297
vt 0.900088 0.248859
vt 0.697750 0.411257
vt 0.677705 0.392587
vt 0.697750 0.316310
vt 0.777632 0.086925
vt 0.756692 0.076205
vt 0.777632 0.010775
vt 0.803525 0.190464
vt 0.785775 0.165982
vt 0.803525 0.097237
vt 0.607774 0.235711
vt 0.626643 0.258230
vt 0.623577 0.340281
vt 0.663169 0.449250
vt 0.646055 0.428555
vt 0.663169 0.345807
vt 0.530735 0.455776
vt 0.515406 0.435402
vt 0.530735 0.360567
vt 0.957823 0.097047
vt 0.943818 0.077305
vt 0.957823 0.010775
vt 0.927188 0.083318
vt 0.907649 0.067388
vt 0.927188 0.010775
vt 0.963834 0.340437
vt 0.950458 0.319232
vt 0.963834 0.248859
vt 0.743385 0.146394
vt 0.762961 0.165794
vt 0.765872 0.246365
vt 0.644418 0.430274
vt 0.626643 0.412120
vt 0.644418 0.329659
vt 0.913865 0.460018
vt 0.900088 0.437250
vt 0.913865 0.353716
vt 0.550938 0.413456
vt 0.531707 0.394053
vt 0.550938 0.311521
vt 0.880324 0.448633
vt 0.864821 0.428901
vt 0.880324 0.354437
vt 0.958770 0.434861
vt 0.943277 0.418288
vt 0.958770 0.353716
vt 0.607774 0.097212
vt 0.589885 0.078666
vt 0.599151 0.010775
vt 0.803525 0.146467
vt 0.820666 0.167196
vt 0.815145 0.248859
vt 0.717776 0.128373
vt 0.735042 0.148818
vt 0.743385 0.234217
vt 0.840079 0.457543
vt 0.824860 0.436711
vt 0.840079 0.350765
vt 0.839705 0.203477
vt 0.820666 0.182870
vt 0.839705 0.097237
vt 0.508240 0.503524
vt 0.497048 0.489331
vt 0.508240 0.447316
vt 0.566719 0.513780
vt 0.556886 0.501526
vt 0.566719 0.447263
vt 0.971371 0.089903
vt 0.957823 0.072615
vt 0.971371 0.010775
vt 0.971280 0.437694
vt 0.958770 0.421168
vt 0.971280 0.353716
vt 0.970301 0.517965
vt 0.958770 0.502496
vt 0.970301 0.437694
vt 0.756682 0.097237
vt 0.765872 0.110688
vt 0.607755 0.244982
vt 0.596456 0.226440
vt 0.607755 0.163760
vt 0.958755 0.502313
vt 0.943277 0.488528
vt 0.575709 0.513440
vt 0.566719 0.501775
vt 0.575709 0.447263
vt 0.580715 0.129506
vt 0.564580 0.116010
vt 0.569109 0.054691
vt 0.593992 0.145278
vt 0.576211 0.063767
vt 0.607774 0.160076
vt 0.983024 0.095236
vt 0.971371 0.078668
vt 0.983024 0.010775
vt 0.976204 0.330294
vt 0.963834 0.313348
vt 0.976204 0.248859
vt 0.979358 0.434709
vt 0.971280 0.415777
vt 0.979358 0.353716
vt 0.607649 0.477648
vt 0.597037 0.460668
vt 0.607649 0.406146
vt 0.539811 0.173845
vt 0.519872 0.183294
vt 0.503596 0.147639
vt 0.820666 0.097237
vt 0.893595 0.235698
vt 0.874050 0.235698
vt 0.877462 0.206230
vt 0.577056 0.403317
vt 0.587030 0.407897
vt 0.579569 0.445886
vt 0.636703 0.141042
vt 0.628900 0.128077
vt 0.660281 0.108496
vt 0.927188 0.076114
vt 0.943818 0.010775
vt 0.943818 0.092269
vt 0.637388 0.163980
vt 0.676934 0.141316
vt 0.475834 0.192654
vt 0.510204 0.200970
vt 0.479658 0.208366
vt 0.874050 0.248736
vt 0.858176 0.237091
vt 0.874050 0.206230
vt 0.677705 0.163094
vt 0.571556 0.163760
vt 0.556886 0.146877
vt 0.488206 0.161125
vt 0.479861 0.175859
vt 0.516612 0.215262
vt 0.670140 0.125313
vt 0.596913 0.448700
vt 0.607774 0.070877
vt 0.542832 0.204890
vt 0.834673 0.075045
vt 0.852598 0.010775
vt 0.852598 0.095598
vt 0.743385 0.097237
vt 0.609231 0.039181
vt 0.910029 0.206230
vt 0.910029 0.234939
vt 0.893595 0.233061
vt 0.513440 0.133364
vt 0.489513 0.113645
vt 0.596913 0.377174
vt 0.607774 0.153762
vt 0.522292 0.138354
vt 0.803525 0.483516
vt 0.821999 0.440053
vt 0.821999 0.486894
vt 0.628486 0.178925
vt 0.671517 0.181529
vt 0.622179 0.096863
vt 0.613137 0.097237
vt 0.612119 0.181529
vt 0.820666 0.238314
vt 0.837150 0.203477
vt 0.837150 0.246743
vt 0.645937 0.097237
vt 0.852598 0.073864
vt 0.871537 0.010775
vt 0.871538 0.091040
vt 0.626358 0.011367
vt 0.542832 0.133364
vt 0.697776 0.467774
vt 0.716325 0.415072
vt 0.716325 0.480873
vt 0.574152 0.163760
vt 0.734883 0.404140
vt 0.743029 0.337480
vt 0.743029 0.422400
vt 0.607509 0.323394
vt 0.607509 0.406146
vt 0.597037 0.390701
vt 0.556088 0.311521
vt 0.824860 0.347381
vt 0.946502 0.233038
vt 0.956706 0.179687
vt 0.956706 0.246139
vt 0.607774 0.488399
vt 0.622193 0.443959
vt 0.622193 0.496531
vt 0.717776 0.492601
vt 0.730528 0.441627
vt 0.730528 0.506099
vt 0.971280 0.494257
vt 0.979030 0.434709
vt 0.979030 0.513138
vt 0.542832 0.197775
vt 0.556127 0.133364
vt 0.556127 0.214311
vt 0.970583 0.165140
vt 0.982458 0.097237
vt 0.982458 0.181876
vt 0.587679 0.267352
vt 0.596456 0.273177
vt 0.927396 0.489011
vt 0.942615 0.438774
vt 0.942615 0.502514
vt 0.596456 0.304853
vt 0.607509 0.244982
vt 0.663179 0.486421
vt 0.676275 0.420904
vt 0.676275 0.504601
vt 0.785775 0.248468
vt 0.505358 0.368771
vt 0.844531 0.492973
vt 0.859127 0.437147
vt 0.859127 0.507496
vt 0.883074 0.493672
vt 0.897369 0.446559
vt 0.897369 0.498694
vt 0.626643 0.491580
vt 0.643654 0.430274
vt 0.643654 0.500637
vt 0.844531 0.422666
vt 0.863454 0.346080
vt 0.863454 0.437147
vt 0.663179 0.396030
vt 0.677212 0.315295
vt 0.677212 0.420904
vt 0.577056 0.357505
vt 0.596395 0.273177
vt 0.596395 0.377174
vt 0.743385 0.433386
vt 0.759241 0.350476
vt 0.759241 0.453791
vt 0.646055 0.329659
vt 0.531707 0.215262
vt 0.883074 0.427157
vt 0.898924 0.353677
vt 0.898924 0.446559
vt 0.912264 0.177402
vt 0.926176 0.097237
vt 0.926176 0.200301
vt 0.607774 0.423845
vt 0.624950 0.340281
vt 0.624950 0.443959
vt 0.900088 0.333462
vt 0.916025 0.248859
vt 0.916025 0.353716
vt 0.913865 0.438512
vt 0.927396 0.353716
vt 0.927396 0.456904
vt 0.839705 0.240738
vt 0.858176 0.195594
vt 0.858176 0.248736
vt 0.677705 0.476504
vt 0.688538 0.411257
vt 0.697462 0.476504
vt 0.803525 0.419666
vt 0.822042 0.347381
vt 0.697776 0.395589
vt 0.717428 0.316289
vt 0.717428 0.415072
vt 0.860005 0.180477
vt 0.878263 0.097237
vt 0.878263 0.203617
vt 0.717776 0.420090
vt 0.734883 0.337480
vt 0.734883 0.441627
vt 0.839705 0.177857
vt 0.860005 0.097237
vt 0.860005 0.195594
vt 0.649814 0.345807
vt 0.717298 0.080185
vt 0.736052 0.010775
vt 0.736052 0.096395
vt 0.844531 0.328683
vt 0.864821 0.248859
vt 0.864821 0.346080
vt 0.864821 0.330529
vt 0.883074 0.248859
vt 0.883074 0.354437
vt 0.743385 0.329911
vt 0.765151 0.246365
vt 0.765151 0.350476
vt 0.824860 0.331073
vt 0.844531 0.248859
vt 0.844531 0.350764
vt 0.724464 0.213112
vt 0.795025 0.265009
vt 0.626643 0.181529
vt 0.916025 0.308006
vt 0.934182 0.248859
vt 0.934182 0.324160
vt 0.871537 0.075201
vt 0.890003 0.010775
vt 0.890003 0.092586
vt 0.676826 0.076535
vt 0.696845 0.010775
vt 0.696845 0.095207
vt 0.475834 0.474283
vt 0.491877 0.410556
vt 0.491877 0.492310
vt 0.736052 0.073995
vt 0.756692 0.010775
vt 0.756692 0.088028
vt 0.782175 0.452063
vt 0.800600 0.393787
vt 0.800600 0.469095
vt 0.796534 0.074643
vt 0.816292 0.010775
vt 0.816292 0.090868
vn -0.000000 -1.000000 -0.000000
vn 0.664700 0.019500 -0.746900
vn 0.474600 0.009800 -0.880200
vn 0.258800 -0.001800 -0.965900
vn 0.029100 -0.015300 -0.999500
vn -0.202100 -0.030700 -0.978900
vn -0.422100 -0.048000 -0.905300
vn -0.618800 -0.067200 -0.782600
vn -0.781400 -0.088300 -0.617800
vn -0.900700 -0.111100 -0.420000
vn 0.000000 1.000000 0.000000
vn 0.029100 0.019500 -0.999400
vn -0.202200 0.009800 -0.979300
vn -0.422600 -0.001800 -0.906300
vn -0.620200 -0.015300 -0.784300
vn -0.784000 -0.030700 -0.619900
vn -0.905300 -0.048000 -0.422100
vn -0.977100 -0.067200 -0.201800
vn -0.995700 -0.088300 0.029000
vn -0.959900 -0.111100 0.257200
vn -0.620100 0.019500 -0.784300
vn -0.784400 0.009800 -0.620200
vn -0.906300 -0.001800 -0.422600
vn -0.979200 -0.015300 -0.202200
vn -0.999100 -0.030700 0.029100
vn -0.964800 -0.048000 0.258500
vn -0.878200 -0.067200 0.473500
vn -0.744100 -0.088300 0.662200
vn -0.570000 -0.111100 0.814100
vn -0.979200 0.019500 -0.202200
vn -0.999500 0.009800 0.029100
vn -0.965900 -0.001800 0.258800
vn -0.880100 -0.015300 0.474500
vn -0.746700 -0.030700 0.664500
vn -0.572900 -0.048000 0.818200
vn -0.368400 -0.067200 0.927200
vn -0.144400 -0.088300 0.985600
vn 0.086600 -0.111100 0.990000
vn -0.880000 0.019500 0.474500
vn -0.747000 0.009800 0.664800
vn -0.573600 -0.001800 0.819200
vn -0.369200 -0.015300 0.929200
vn -0.144900 -0.030700 0.989000
vn 0.087100 -0.048000 0.995000
vn 0.313800 -0.067200 0.947100
vn 0.522900 -0.088300 0.847800
vn 0.702700 -0.111100 0.702700
vn -0.369100 0.019500 0.929200
vn -0.144900 0.009800 0.989400
vn 0.087200 -0.001800 0.996200
vn 0.314500 -0.015300 0.949100
vn 0.524700 -0.030700 0.850700
vn 0.706300 -0.048000 0.706300
vn 0.849200 -0.067200 0.523800
vn 0.945500 -0.088300 0.313300
vn 0.990000 -0.111100 0.086600
vn 0.314500 0.019500 0.949100
vn 0.525000 0.009800 0.851100
vn 0.707100 -0.001800 0.707100
vn 0.851000 -0.015300 0.524900
vn 0.948800 -0.030700 0.314400
vn 0.995000 -0.048000 0.087100
vn 0.987200 -0.067200 -0.144600
vn 0.925700 -0.088300 -0.367800
vn 0.814100 -0.111100 -0.570000
vn 0.851000 0.019500 0.524900
vn 0.949200 0.009800 0.314500
vn 0.996200 -0.001800 0.087200
vn 0.989300 -0.015300 -0.144900
vn 0.928900 -0.030700 -0.369000
vn 0.818200 -0.048000 -0.572900
vn 0.663300 -0.067200 -0.745300
vn 0.472700 -0.088300 -0.876800
vn 0.257200 -0.111100 -0.959900
vn 0.989300 0.019500 -0.144900
vn 0.929300 0.009800 -0.369200
vn 0.819200 -0.001800 -0.573600
vn 0.664700 -0.015300 -0.746900
vn 0.474400 -0.030700 -0.879800
vn 0.258500 -0.048000 -0.964800
vn 0.029000 -0.067200 -0.997300
vn -0.201400 -0.088300 -0.975500
vn -0.420000 -0.111100 -0.900700
vn 0.814100 0.111100 -0.570000
vn 0.662200 0.088300 -0.744100
vn 0.473500 0.067200 -0.878200
vn 0.258500 0.048000 -0.964800
vn 0.029100 0.030700 -0.999100
vn -0.202200 0.015300 -0.979200
vn -0.422600 0.001800 -0.906300
vn -0.620200 -0.009800 -0.784400
vn -0.784300 -0.019500 -0.620100
vn 0.257200 0.111100 -0.959900
vn 0.029000 0.088300 -0.995700
vn -0.201800 0.067200 -0.977100
vn -0.422100 0.048000 -0.905300
vn -0.619900 0.030700 -0.784000
vn -0.784300 0.015300 -0.620200
vn -0.906300 0.001800 -0.422600
vn -0.979300 -0.009800 -0.202200
vn -0.999400 -0.019500 0.029100
vn -0.420000 0.111100 -0.900700
vn -0.617800 0.088300 -0.781400
vn -0.782600 0.067200 -0.618800
vn -0.905300 0.048000 -0.422100
vn -0.978900 0.030700 -0.202100
vn -0.999500 0.015300 0.029100
vn -0.965900 0.001800 0.258800
vn -0.880200 -0.009800 0.474600
vn -0.746900 -0.019500 0.664700
vn -0.900700 0.111100 -0.420000
vn -0.975500 0.088300 -0.201400
vn -0.997300 0.067200 0.029000
vn -0.964800 0.048000 0.258500
vn -0.879800 0.030700 0.474400
vn -0.746900 0.015300 0.664700
vn -0.573600 0.001800 0.819200
vn -0.369200 -0.009800 0.929300
vn -0.144900 -0.019500 0.989300
vn -0.959900 0.111100 0.257200
vn -0.876800 0.088300 0.472700
vn -0.745300 0.067200 0.663300
vn -0.572900 0.048000 0.818200
vn -0.369000 0.030700 0.928900
vn -0.144900 0.015300 0.989300
vn 0.087200 0.001800 0.996200
vn 0.314500 -0.009800 0.949200
vn 0.524900 -0.019500 0.851000
vn -0.570000 0.111100 0.814100
vn -0.367800 0.088300 0.925700
vn -0.144600 0.067200 0.987200
vn 0.087100 0.048000 0.995000
vn 0.314400 0.030700 0.948800
vn 0.524900 0.015300 0.851000
vn 0.707100 0.001800 0.707100
vn 0.851100 -0.009800 0.525000
vn 0.949100 -0.019500 0.314500
vn 0.086600 0.111100 0.990000
vn 0.313300 0.088300 0.945500
vn 0.523800 0.067200 0.849200
vn 0.706300 0.048000 0.706300
vn 0.850700 0.030700 0.524700
vn 0.949100 0.015300 0.314500
vn 0.996200 0.001800 0.087200
vn 0.989400 -0.009800 -0.144900
vn 0.929200 -0.019500 -0.369100
vn 0.702700 0.111100 0.702700
vn 0.847800 0.088300 0.522900
vn 0.947100 0.067200 0.313800
vn 0.995000 0.048000 0.087100
vn 0.989000 0.030700 -0.144900
vn 0.929200 0.015300 -0.369200
vn 0.819200 0.001800 -0.573600
vn 0.664800 -0.009800 -0.747000
vn 0.474500 -0.019500 -0.880000
vn 0.990000 0.111100 0.086600
vn 0.985600 0.088300 -0.144400
vn 0.927200 0.067200 -0.368400
vn 0.818200 0.048000 -0.572900
vn 0.664500 0.030700 -0.746700
vn 0.474500 0.015300 -0.880100
vn 0.258800 0.001800 -0.965900
vn 0.029100 -0.009800 -0.999500
vn -0.202200 -0.019500 -0.979200
vn 0.643600 -0.719700 -0.260600
vn 0.646400 -0.693100 -0.319100
vn 0.288600 -0.727900 -0.622000
vn 0.251700 -0.599200 -0.760000
vn -0.285700 -0.676300 -0.679000
vn -0.231900 -0.678600 -0.696900
vn -0.742100 -0.636200 -0.210700
vn -0.730900 -0.634700 -0.250800
vn -0.745500 -0.560400 0.360900
vn -0.769100 -0.556700 0.314000
vn -0.512900 -0.632900 0.579900
vn -0.013900 -0.685300 0.728200
vn 0.186100 -0.610900 0.769500
vn 0.251600 -0.620600 0.742700
vn 0.582300 -0.757300 0.295700
vn 0.691400 -0.690800 0.211700
vn 0.372700 -0.653900 -0.658500
vn 0.169700 -0.633500 -0.754900
vn -0.264500 -0.679800 -0.684100
vn -0.443600 -0.611700 -0.655000
vn -0.640200 -0.534300 -0.552000
vn -0.748600 -0.606700 -0.267400
vn -0.619700 -0.720900 0.310200
vn -0.761000 -0.563800 0.320800
vn -0.373100 -0.686500 0.624100
vn -0.062200 -0.724500 0.686500
vn 0.082000 -0.614000 0.785000
vn 0.458100 -0.677000 0.576000
vn 0.649700 -0.702400 0.290600
vn 0.773600 -0.586700 0.239600
vn 0.788800 -0.600700 -0.129900
vn 0.640900 -0.640800 -0.422600
vn -0.329600 -0.712700 -0.619200
vn -0.450100 -0.554900 -0.699700
vn -0.655400 -0.734400 -0.176200
vn -0.744200 -0.667700 -0.020500
vn -0.652000 -0.693200 0.307300
vn -0.505200 -0.665500 0.549400
vn -0.449700 -0.522100 0.724700
vn -0.021700 -0.665400 0.746200
vn 0.307800 -0.672800 0.672700
vn 0.497500 -0.590500 0.635400
vn 0.673500 -0.710800 0.203100
vn 0.823500 -0.548500 0.145200
vn 0.697800 -0.668200 -0.258100
vn 0.482600 -0.707900 -0.515700
vn 0.323600 -0.656900 -0.681000
vn 0.035900 -0.660400 -0.750100
vn -0.782700 -0.605400 -0.144600
vn -0.841200 -0.533800 0.086300
vn -0.793500 -0.478500 0.376100
vn -0.365400 -0.655900 0.660500
vn -0.380100 -0.409600 0.829300
vn 0.122200 -0.607100 0.785100
vn 0.444800 -0.639300 0.627200
vn 0.640500 -0.503300 0.580100
vn 0.756800 -0.645400 0.103200
vn 0.838500 -0.537700 -0.088800
vn 0.735100 -0.541600 -0.407700
vn 0.523800 -0.558300 -0.643400
vn 0.141000 -0.615900 -0.775100
vn 0.020700 -0.423500 -0.905700
vn -0.405600 -0.600200 -0.689400
vn -0.652000 -0.648500 -0.392900
vn -0.814400 -0.306800 0.492600
vn -0.686200 -0.196400 0.700400
vn -0.192400 -0.387100 0.901700
vn 0.233500 -0.418500 0.877700
vn 0.559600 -0.414000 0.718000
vn 0.565100 0.173500 0.806600
vn 0.918500 -0.310600 0.244600
vn 0.853100 -0.456000 -0.253600
vn 0.888500 -0.163900 -0.428500
vn 0.459500 -0.417200 -0.784100
vn 0.385200 -0.120300 -0.914900
vn -0.054100 -0.240500 -0.969100
vn -0.534800 -0.419500 -0.733400
vn -0.781700 -0.402600 -0.476300
vn -0.938200 -0.171400 -0.300800
vn -0.943100 -0.292900 0.157500
vn -0.733800 0.675100 0.076100
vn 0.111300 0.588000 -0.801200
vn 0.053600 0.664900 0.745000
vn -0.316800 0.712000 0.626600
vn 0.603400 0.537400 0.589100
vn 0.666900 0.654400 -0.356300
vn 0.603700 0.695900 0.389000
vn -0.500700 0.660500 -0.559500
vn 0.611900 0.557900 -0.560600
vn 0.753100 0.626300 0.201700
vn 0.325000 0.619500 -0.714500
vn -0.660100 0.706700 -0.254600
vn -0.383100 0.711900 -0.588500
vn 0.555300 0.565600 0.609700
vn -0.772100 0.631100 -0.074700
vn -0.112700 0.739500 0.663600
vn 0.436300 -0.885900 -0.157200
vn -0.560000 0.828400 -0.016300
vn 0.836700 0.544800 0.056000
vn 0.074800 0.761200 -0.644200
vn 0.445400 -0.883800 -0.143200
vn 0.124100 0.827600 0.547400
vn -0.189800 -0.892700 -0.408800
vn -0.327700 0.795100 0.510300
vn -0.247900 -0.880800 -0.403400
vn 0.391800 0.873700 0.288400
vn -0.212600 -0.882800 -0.418900
vn 0.492700 0.650400 -0.578200
vn -0.698200 0.581100 0.418200
vn 0.370200 0.873900 0.315100
vn -0.402800 -0.907100 -0.121700
vn -0.706900 0.610100 -0.357900
vn -0.361400 0.701400 -0.614400
vn 0.298800 0.867200 -0.398500
vn -0.322900 -0.921600 0.215400
vn 0.771700 0.539700 -0.336600
vn -0.103600 -0.900600 0.422100
vn 0.244300 0.864000 -0.440300
vn -0.092400 -0.899800 0.426300
vn -0.714400 0.687900 0.128100
vn 0.365100 0.633100 -0.682500
vn -0.277900 0.876100 -0.394000
vn 0.434700 -0.857800 0.274100
vn 0.413500 0.569200 0.710700
vn 0.348900 -0.863800 0.363600
vn -0.559500 0.828800 -0.009100
vn 0.686700 0.673000 -0.275000
vn 0.288800 0.575700 0.764900
vn 0.674400 -0.705700 -0.217400
vn 0.726300 0.684600 -0.061100
vn 0.697500 -0.532900 -0.479000
vn -0.139100 -0.698200 -0.702200
vn -0.300100 -0.679500 -0.669500
vn -0.345200 -0.741900 -0.574800
vn -0.618100 0.576400 0.534500
vn -0.723600 -0.669300 -0.168700
vn -0.711500 0.599000 -0.367300
vn -0.664900 -0.623400 0.411400
vn -0.257300 -0.709600 0.655900
vn -0.115700 -0.660200 0.742100
vn 0.012600 0.639700 -0.768500
vn 0.504000 -0.770100 0.391100
vn 0.534800 -0.710400 0.457600
vn 0.327700 0.619100 -0.713700
vn 0.927600 0.212700 -0.307000
vn 0.793100 0.414000 -0.446700
vn 0.454100 0.274700 -0.847600
vn 0.235200 0.432300 -0.870500
vn -0.311700 0.181000 -0.932800
vn -0.392400 0.441300 -0.807000
vn -0.924100 0.112200 -0.365200
vn -0.891800 0.374600 -0.253800
vn -0.924300 0.017600 0.381400
vn -0.809400 0.428900 0.401000
vn -0.566800 0.392200 0.724500
vn -0.085900 0.199000 0.976200
vn 0.211500 0.311200 0.926500
vn 0.380800 0.471600 0.795300
vn 0.833800 0.272500 0.480200
vn 0.883000 0.407000 0.233900
vn 0.420200 0.542600 -0.727400
vn 0.176200 0.568100 -0.803800
vn -0.306900 0.435500 -0.846300
vn -0.471700 0.542700 -0.694900
vn -0.590000 0.642400 -0.489200
vn -0.692100 0.685000 -0.227400
vn -0.842800 0.374500 0.386500
vn -0.670800 0.674800 0.307600
vn -0.421800 0.581400 0.695800
vn -0.090100 0.504700 0.858600
vn 0.091400 0.647100 0.756900
vn 0.523800 0.522400 0.672800
vn 0.824700 0.410000 0.389600
vn 0.756300 0.616100 0.220300
vn 0.795800 0.590100 -0.136300
vn 0.680900 0.576600 -0.451600
vn -0.394600 0.598700 -0.697100
vn -0.325600 0.764600 -0.556200
vn -0.814000 0.548900 -0.190100
vn -0.733000 0.679900 -0.021100
vn -0.731200 0.580900 0.357500
vn -0.550100 0.567400 0.612800
vn -0.382300 0.719700 0.579600
vn -0.023200 0.655400 0.754900
vn 0.331600 0.630400 0.701900
vn 0.417400 0.718100 0.556800
vn 0.795700 0.565100 0.217900
vn 0.668100 0.730900 0.139500
vn 0.670700 0.699900 -0.245400
vn 0.531400 0.615400 -0.582200
vn 0.323000 0.669500 -0.669000
vn 0.038300 0.695500 -0.717500
vn -0.799700 0.589100 -0.115700
vn -0.776700 0.626700 0.062900
vn -0.665700 0.693100 0.276500
vn -0.345600 0.536800 0.769700
vn -0.324400 0.767500 0.552900
vn 0.123900 0.647700 0.751800
vn 0.512700 0.558600 0.652000
vn 0.481900 0.728600 0.486800
s off
f 103/1/1 104/2/1 105/3/1
f 107/4/2 108/5/2 109/6/2
f 110/7/3 111/8/3 108/5/3
f 112/9/4 113/10/4 111/8/4
f 114/11/5 115/12/5 113/10/5
f 116/13/6 117/14/6 115/12/6
f 118/15/7 119/16/7 117/17/7
f 120/18/8 121/19/8 119/16/8
f 122/20/9 123/21/9 121/19/9
f 124/22/10 125/23/10 123/21/10
f 126/24/11 127/25/11 128/26/11
f 129/27/1 103/1/1 105/3/1
f 131/28/12 107/4/12 106/29/12
f 132/30/13 110/7/13 107/4/13
f 133/31/14 112/32/14 110/33/14
f 134/34/15 114/35/15 112/32/15
f 135/36/16 116/37/16 114/35/16
f 136/38/17 118/15/17 116/37/17
f 137/39/18 120/18/18 118/15/18
f 138/40/19 122/20/19 120/18/19
f 139/41/20 124/42/20 122/43/20
f 140/44/11 127/25/11 126/24/11
f 141/45/1 129/27/1 105/3/1
f 143/46/21 131/47/21 130/48/21
f 144/49/22 132/50/22 131/47/22
f 145/51/23 133/31/23 132/50/23
f 146/52/24 134/34/24 133/31/24
f 147/53/25 135/36/25 134/34/25
f 148/54/26 136/55/26 135/56/26
f 149/57/27 137/58/27 136/55/27
f 150/59/28 138/60/28 137/58/28
f 151/61/29 139/41/29 138/60/29
f 152/62/11 127/25/11 140/44/11
f 153/63/1 141/45/1 105/3/1
f 155/64/30 143/46/30 142/65/30
f 156/66/31 144/49/31 143/46/31
f 157/67/32 145/51/32 144/49/32
f 158/68/33 146/69/33 145/70/33
f 159/71/34 147/72/34 146/69/34
f 160/73/35 148/54/35 147/72/35
f 161/74/36 149/57/36 148/54/36
f 162/75/37 150/59/37 149/57/37
f 163/76/38 151/61/38 150/59/38
f 164/77/11 127/25/11 152/62/11
f 165/78/1 153/63/1 105/3/1
f 167/79/39 155/80/39 154/81/39
f 168/82/40 156/83/40 155/80/40
f 169/84/41 157/85/41 156/83/41
f 170/86/42 158/68/42 157/85/42
f 171/87/43 159/71/43 158/68/43
f 172/88/44 160/73/44 159/71/44
f 173/89/45 161/90/45 160/91/45
f 174/92/46 162/93/46 161/90/46
f 175/94/47 163/95/47 162/93/47
f 176/96/11 127/25/11 164/77/11
f 177/97/1 165/78/1 105/3/1
f 179/98/48 167/79/48 166/99/48
f 180/100/49 168/82/49 167/79/49
f 181/101/50 169/84/50 168/82/50
f 182/102/51 170/103/51 169/104/51
f 183/105/52 171/106/52 170/103/52
f 184/107/53 172/108/53 171/106/53
f 185/109/54 173/89/54 172/108/54
f 186/110/55 174/92/55 173/89/55
f 187/111/56 175/94/56 174/92/56
f 188/112/11 127/25/11 176/96/11
f 189/113/1 177/97/1 105/3/1
f 191/114/57 179/115/57 178/116/57
f 192/117/58 180/118/58 179/115/58
f 193/119/59 181/120/59 180/118/59
f 194/121/60 182/102/60 181/120/60
f 195/122/61 183/105/61 182/102/61
f 196/123/62 184/107/62 183/105/62
f 197/124/63 185/109/63 184/107/63
f 198/125/64 186/126/64 185/127/64
f 199/128/65 187/129/65 186/126/65
f 200/130/11 127/25/11 188/112/11
f 201/131/1 189/113/1 105/3/1
f 203/132/66 191/114/66 190/133/66
f 204/134/67 192/117/67 191/114/67
f 205/135/68 193/119/68 192/117/68
f 206/136/69 194/121/69 193/119/69
f 207/137/70 195/138/70 194/139/70
f 208/140/71 196/141/71 195/138/71
f 209/142/72 197/143/72 196/141/72
f 210/144/73 198/125/73 197/143/73
f 211/145/74 199/128/74 198/125/74
f 212/146/11 127/25/11 200/130/11
f 104/2/1 201/131/1 105/3/1
f 108/147/75 203/132/75 202/148/75
f 111/8/76 204/149/76 203/150/76
f 113/10/77 205/151/77 204/149/77
f 115/12/78 206/152/78 205/151/78
f 117/14/79 207/137/79 206/152/79
f 119/153/80 208/140/80 207/137/80
f 121/154/81 209/142/81 208/140/81
f 123/155/82 210/144/82 209/142/82
f 125/23/83 211/156/83 210/157/83
f 128/26/11 127/25/11 212/146/11
f 106/29/84 107/4/84 109/6/84
f 107/4/85 110/7/85 108/5/85
f 110/7/86 112/9/86 111/8/86
f 112/9/87 114/11/87 113/10/87
f 114/11/88 116/13/88 115/12/88
f 116/37/89 118/15/89 117/17/89
f 118/15/90 120/18/90 119/16/90
f 120/18/91 122/20/91 121/19/91
f 122/20/92 124/22/92 123/21/92
f 130/158/93 131/28/93 106/29/93
f 131/28/94 132/30/94 107/4/94
f 132/50/95 133/31/95 110/33/95
f 133/31/96 134/34/96 112/32/96
f 134/34/97 135/36/97 114/35/97
f 135/36/98 136/38/98 116/37/98
f 136/38/99 137/39/99 118/15/99
f 137/39/100 138/40/100 120/18/100
f 138/60/101 139/41/101 122/43/101
f 142/65/102 143/46/102 130/48/102
f 143/46/103 144/49/103 131/47/103
f 144/49/104 145/51/104 132/50/104
f 145/51/105 146/52/105 133/31/105
f 146/52/106 147/53/106 134/34/106
f 147/72/107 148/54/107 135/56/107
f 148/54/108 149/57/108 136/55/108
f 149/57/109 150/59/109 137/58/109
f 150/59/110 151/61/110 138/60/110
f 154/159/111 155/64/111 142/65/111
f 155/64/112 156/66/112 143/46/112
f 156/66/113 157/67/113 144/49/113
f 157/85/114 158/68/114 145/70/114
f 158/68/115 159/71/115 146/69/115
f 159/71/116 160/73/116 147/72/116
f 160/73/117 161/74/117 148/54/117
f 161/74/118 162/75/118 149/57/118
f 162/75/119 163/76/119 150/59/119
f 166/99/120 167/79/120 154/81/120
f 167/79/121 168/82/121 155/80/121
f 168/82/122 169/84/122 156/83/122
f 169/84/123 170/86/123 157/85/123
f 170/86/124 171/87/124 158/68/124
f 171/87/125 172/88/125 159/71/125
f 172/108/126 173/89/126 160/91/126
f 173/89/127 174/92/127 161/90/127
f 174/92/128 175/94/128 162/93/128
f 178/160/129 179/98/129 166/99/129
f 179/98/130 180/100/130 167/79/130
f 180/100/131 181/101/131 168/82/131
f 181/120/132 182/102/132 169/104/132
f 182/102/133 183/105/133 170/103/133
f 183/105/134 184/107/134 171/106/134
f 184/107/135 185/109/135 172/108/135
f 185/109/136 186/110/136 173/89/136
f 186/110/137 187/111/137 174/92/137
f 190/133/138 191/114/138 178/116/138
f 191/114/139 192/117/139 179/115/139
f 192/117/140 193/119/140 180/118/140
f 193/119/141 194/121/141 181/120/141
f 194/121/142 195/122/142 182/102/142
f 195/122/143 196/123/143 183/105/143
f 196/123/144 197/124/144 184/107/144
f 197/143/145 198/125/145 185/127/145
f 198/125/146 199/128/146 186/126/146
f 202/148/147 203/132/147 190/133/147
f 203/132/148 204/134/148 191/114/148
f 204/134/149 205/135/149 192/117/149
f 205/135/150 206/136/150 193/119/150
f 206/152/151 207/137/151 194/139/151
f 207/137/152 208/140/152 195/138/152
f 208/140/153 209/142/153 196/141/153
f 209/142/154 210/144/154 197/143/154
f 210/144/155 211/145/155 198/125/155
f 109/76/156 108/147/156 202/148/156
f 108/5/157 111/8/157 203/150/157
f 111/8/158 113/10/158 204/149/158
f 113/10/159 115/12/159 205/151/159
f 115/12/160 117/14/160 206/152/160
f 117/14/161 119/153/161 207/137/161
f 119/153/162 121/154/162 208/140/162
f 121/154/163 123/155/163 209/142/163
f 123/21/164 125/23/164 210/157/164
f 1/161/165 2/162/165 3/163/165
f 4/164/166 1/161/166 5/165/166
f 6/166/167 4/167/167 5/168/167
f 7/169/168 6/170/168 8/171/168
f 9/172/169 7/173/169 10/174/169
f 11/175/170 9/172/170 12/176/170
f 13/177/171 11/175/171 14/178/171
f 15/179/172 13/177/172 14/178/172
f 16/180/173 15/179/173 17/181/173
f 18/182/174 16/180/174 17/181/174
f 19/183/175 18/182/175 20/184/175
f 21/185/176 19/186/176 22/187/176
f 23/188/177 21/185/177 24/189/177
f 25/190/178 23/191/178 24/192/178
f 26/193/179 25/190/179 27/194/179
f 2/162/180 26/193/180 3/163/180
f 28/195/181 29/196/181 2/197/181
f 28/198/182 1/199/182 30/200/182
f 31/201/183 30/202/183 4/203/183
f 32/204/184 31/205/184 6/206/184
f 33/207/185 32/208/185 7/209/185
f 34/210/186 33/211/186 9/212/186
f 35/213/187 34/214/187 11/175/187
f 36/215/188 35/213/188 13/177/188
f 37/216/189 36/217/189 15/218/189
f 38/219/190 37/220/190 16/221/190
f 39/222/191 38/223/191 18/224/191
f 40/225/192 39/226/192 19/227/192
f 41/228/193 40/229/193 21/230/193
f 42/231/194 41/232/194 23/233/194
f 43/234/195 42/235/195 25/236/195
f 29/237/196 43/238/196 26/239/196
f 44/240/197 45/241/197 29/242/197
f 46/243/198 44/244/198 28/245/198
f 47/246/199 46/247/199 30/248/199
f 48/249/200 47/250/200 31/251/200
f 49/252/201 48/253/201 32/254/201
f 50/255/202 49/256/202 33/257/202
f 51/258/203 50/259/203 34/260/203
f 52/261/204 51/262/204 35/263/204
f 53/264/205 52/265/205 36/266/205
f 54/267/206 53/268/206 37/269/206
f 55/270/207 54/271/207 38/272/207
f 56/273/208 55/274/208 39/275/208
f 57/276/209 56/277/209 40/278/209
f 58/279/210 57/280/210 41/281/210
f 59/282/211 58/283/211 42/284/211
f 45/285/212 59/286/212 43/287/212
f 60/288/213 61/289/213 45/290/213
f 62/291/214 60/292/214 44/293/214
f 63/294/215 62/295/215 46/296/215
f 64/297/216 63/298/216 47/299/216
f 65/300/217 64/301/217 48/302/217
f 66/303/218 65/304/218 49/305/218
f 67/306/219 66/307/219 50/308/219
f 68/309/220 67/310/220 51/311/220
f 69/312/221 68/313/221 52/314/221
f 70/315/222 69/316/222 53/317/222
f 71/318/223 70/319/223 54/320/223
f 72/321/224 71/322/224 55/323/224
f 73/324/225 72/325/225 56/326/225
f 74/327/226 73/328/226 57/329/226
f 75/330/227 74/331/227 58/332/227
f 61/333/228 75/334/228 59/335/228
f 76/336/229 77/337/229 61/338/229
f 78/339/230 76/340/230 60/341/230
f 79/342/231 78/343/231 62/344/231
f 80/345/232 79/346/232 63/347/232
f 81/348/233 80/349/233 64/350/233
f 82/351/234 81/352/234 65/304/234
f 83/353/235 82/354/235 66/355/235
f 84/356/236 83/357/236 67/318/236
f 85/358/237 84/359/237 68/360/237
f 86/361/238 85/362/238 69/363/238
f 87/364/239 86/361/239 70/365/239
f 88/366/240 87/364/240 71/322/240
f 89/367/241 88/368/241 72/369/241
f 90/370/242 89/371/242 73/372/242
f 91/373/243 90/374/243 74/375/243
f 77/376/244 91/377/244 75/378/244
f 92/379/245 93/380/245 77/381/245
f 73/324/246 89/382/246 72/325/246
f 94/383/247 92/384/247 78/385/247
f 95/386/248 94/387/248 79/388/248
f 96/389/249 95/390/249 80/391/249
f 71/392/250 87/393/250 70/394/250
f 97/395/251 96/389/251 82/396/251
f 89/397/252 98/398/252 88/399/252
f 99/400/253 97/401/253 84/402/253
f 83/403/254 97/395/254 82/396/254
f 100/404/255 99/405/255 86/361/255
f 91/406/256 93/380/256 90/407/256
f 98/398/257 100/408/257 88/399/257
f 81/409/258 96/389/258 80/391/258
f 93/380/259 98/398/259 90/407/259
f 79/388/260 94/387/260 78/410/260
f 5/165/261 3/163/261 101/411/261
f 102/412/262 93/380/262 92/379/262
f 69/413/263 85/414/263 68/415/263
f 74/327/264 90/416/264 73/328/264
f 8/417/265 5/165/265 101/411/265
f 102/418/266 92/419/266 94/420/266
f 10/174/267 8/421/267 101/422/267
f 102/423/268 94/387/268 95/386/268
f 12/176/269 10/174/269 101/422/269
f 102/424/270 95/390/270 96/389/270
f 14/178/271 12/176/271 101/422/271
f 72/321/272 88/366/272 71/322/272
f 76/425/273 92/379/273 77/381/273
f 102/424/274 96/389/274 97/395/274
f 17/181/275 14/178/275 101/422/275
f 90/407/276 98/398/276 89/397/276
f 75/426/277 91/427/277 74/428/277
f 102/424/278 97/395/278 99/429/278
f 20/184/279 17/181/279 101/422/279
f 84/430/280 97/395/280 83/403/280
f 22/431/281 20/432/281 101/411/281
f 102/424/282 99/429/282 100/433/282
f 24/192/283 22/431/283 101/411/283
f 77/381/284 93/380/284 91/406/284
f 87/364/285 100/404/285 86/361/285
f 102/412/286 100/408/286 98/398/286
f 27/194/287 24/192/287 101/411/287
f 82/396/288 96/389/288 81/409/288
f 3/163/289 27/194/289 101/411/289
f 102/412/290 98/398/290 93/380/290
f 85/434/291 99/435/291 84/436/291
f 80/391/292 95/390/292 79/437/292
f 5/165/293 1/161/293 3/163/293
f 70/438/294 86/439/294 69/440/294
f 8/417/295 6/441/295 5/165/295
f 10/174/296 7/173/296 8/421/296
f 12/176/297 9/172/297 10/174/297
f 14/178/298 11/175/298 12/176/298
f 78/442/299 92/379/299 76/425/299
f 17/181/300 15/179/300 14/178/300
f 61/443/301 77/444/301 75/445/301
f 20/184/302 18/182/302 17/181/302
f 22/187/303 19/186/303 20/446/303
f 24/189/304 21/185/304 22/187/304
f 88/366/305 100/404/305 87/364/305
f 27/194/306 25/190/306 24/192/306
f 3/163/307 26/193/307 27/194/307
f 86/361/308 99/405/308 85/362/308
f 1/447/309 28/448/309 2/449/309
f 30/450/310 1/451/310 4/452/310
f 6/166/311 31/453/311 4/167/311
f 7/169/312 32/454/312 6/170/312
f 9/455/313 33/456/313 7/457/313
f 11/458/314 34/459/314 9/460/314
f 13/177/315 35/213/315 11/175/315
f 15/461/316 36/462/316 13/463/316
f 16/464/317 37/465/317 15/466/317
f 18/467/318 38/468/318 16/469/318
f 19/470/319 39/471/319 18/472/319
f 21/185/320 40/473/320 19/186/320
f 23/188/321 41/474/321 21/185/321
f 25/475/322 42/476/322 23/477/322
f 26/478/323 43/479/323 25/450/323
f 2/480/324 29/481/324 26/482/324
f 28/195/325 44/483/325 29/196/325
f 30/200/326 46/484/326 28/198/326
f 31/485/327 47/486/327 30/487/327
f 32/488/328 48/489/328 31/490/328
f 33/491/329 49/492/329 32/493/329
f 34/494/330 50/495/330 33/496/330
f 35/497/331 51/498/331 34/499/331
f 36/500/332 52/501/332 35/502/332
f 37/503/333 53/504/333 36/505/333
f 38/219/334 54/506/334 37/220/334
f 39/222/335 55/507/335 38/223/335
f 40/508/336 56/509/336 39/510/336
f 41/511/337 57/512/337 40/513/337
f 42/514/338 58/515/338 41/516/338
f 43/517/339 59/518/339 42/519/339
f 29/520/340 45/521/340 43/522/340
f 44/523/341 60/524/341 45/525/341
f 46/526/342 62/527/342 44/528/342
f 47/529/343 63/530/343 46/427/343
f 48/531/344 64/532/344 47/533/344
f 49/534/345 65/535/345 48/536/345
f 50/537/346 66/538/346 49/539/346
f 51/540/347 67/541/347 50/542/347
f 52/261/348 68/543/348 51/262/348
f 53/544/349 69/545/349 52/546/349
f 54/547/350 70/548/350 53/549/350
f 55/550/351 71/551/351 54/552/351
f 56/553/352 72/554/352 55/555/352
f 57/556/353 73/557/353 56/558/353
f 58/559/354 74/327/354 57/329/354
f 59/282/355 75/560/355 58/283/355
f 45/285/356 61/561/356 59/286/356
f 60/562/357 76/563/357 61/564/357
f 62/565/358 78/566/358 60/567/358
f 63/568/359 79/569/359 62/570/359
f 64/571/360 80/572/360 63/573/360
f 65/574/361 81/575/361 64/576/361
f 66/303/362 82/351/362 65/304/362
f 67/577/363 83/578/363 66/579/363
f 68/580/364 84/581/364 67/582/364
